G04 #@! TF.GenerationSoftware,KiCad,Pcbnew,(5.1.4)-1*
G04 #@! TF.CreationDate,2020-04-23T21:15:45+02:00*
G04 #@! TF.ProjectId,panel,70616e65-6c2e-46b6-9963-61645f706362,rev?*
G04 #@! TF.SameCoordinates,Original*
G04 #@! TF.FileFunction,Profile,NP*
%FSLAX46Y46*%
G04 Gerber Fmt 4.6, Leading zero omitted, Abs format (unit mm)*
G04 Created by KiCad (PCBNEW (5.1.4)-1) date 2020-04-23 21:15:45*
%MOMM*%
%LPD*%
G04 APERTURE LIST*
%ADD10C,0.050000*%
G04 APERTURE END LIST*
D10*
X136250000Y-33500000D02*
X133250000Y-33500000D01*
X136250000Y-128000000D02*
X136250000Y-33500000D01*
X133250000Y-128000000D02*
X136250000Y-128000000D01*
X39250000Y-33500000D02*
X42250000Y-33500000D01*
X39250000Y-128000000D02*
X39250000Y-33500000D01*
X133250000Y-117500000D02*
X133250000Y-128000000D01*
X120250000Y-117500000D02*
X120250000Y-128000000D01*
X107250000Y-117500000D02*
X107250000Y-128000000D01*
X94250000Y-117500000D02*
X94250000Y-128000000D01*
X81250000Y-117500000D02*
X81250000Y-128000000D01*
X68250000Y-117500000D02*
X68250000Y-128000000D01*
X55250000Y-117500000D02*
X55250000Y-128000000D01*
X133250000Y-107000000D02*
X133250000Y-117500000D01*
X120250000Y-107000000D02*
X120250000Y-117500000D01*
X107250000Y-107000000D02*
X107250000Y-117500000D01*
X94250000Y-107000000D02*
X94250000Y-117500000D01*
X81250000Y-107000000D02*
X81250000Y-117500000D01*
X68250000Y-107000000D02*
X68250000Y-117500000D01*
X55250000Y-107000000D02*
X55250000Y-117500000D01*
X133250000Y-96500000D02*
X133250000Y-107000000D01*
X120250000Y-96500000D02*
X120250000Y-107000000D01*
X107250000Y-96500000D02*
X107250000Y-107000000D01*
X94250000Y-96500000D02*
X94250000Y-107000000D01*
X81250000Y-96500000D02*
X81250000Y-107000000D01*
X68250000Y-96500000D02*
X68250000Y-107000000D01*
X55250000Y-96500000D02*
X55250000Y-107000000D01*
X133250000Y-86000000D02*
X133250000Y-96500000D01*
X120250000Y-86000000D02*
X120250000Y-96500000D01*
X107250000Y-86000000D02*
X107250000Y-96500000D01*
X94250000Y-86000000D02*
X94250000Y-96500000D01*
X81250000Y-86000000D02*
X81250000Y-96500000D01*
X68250000Y-86000000D02*
X68250000Y-96500000D01*
X55250000Y-86000000D02*
X55250000Y-96500000D01*
X133250000Y-75500000D02*
X133250000Y-86000000D01*
X120250000Y-75500000D02*
X120250000Y-86000000D01*
X107250000Y-75500000D02*
X107250000Y-86000000D01*
X94250000Y-75500000D02*
X94250000Y-86000000D01*
X81250000Y-75500000D02*
X81250000Y-86000000D01*
X68250000Y-75500000D02*
X68250000Y-86000000D01*
X55250000Y-75500000D02*
X55250000Y-86000000D01*
X133250000Y-65000000D02*
X133250000Y-75500000D01*
X120250000Y-65000000D02*
X120250000Y-75500000D01*
X107250000Y-65000000D02*
X107250000Y-75500000D01*
X94250000Y-65000000D02*
X94250000Y-75500000D01*
X81250000Y-65000000D02*
X81250000Y-75500000D01*
X68250000Y-65000000D02*
X68250000Y-75500000D01*
X55250000Y-65000000D02*
X55250000Y-75500000D01*
X133250000Y-54500000D02*
X133250000Y-65000000D01*
X120250000Y-54500000D02*
X120250000Y-65000000D01*
X107250000Y-54500000D02*
X107250000Y-65000000D01*
X94250000Y-54500000D02*
X94250000Y-65000000D01*
X81250000Y-54500000D02*
X81250000Y-65000000D01*
X68250000Y-54500000D02*
X68250000Y-65000000D01*
X55250000Y-54500000D02*
X55250000Y-65000000D01*
X133250000Y-44000000D02*
X133250000Y-54500000D01*
X120250000Y-44000000D02*
X120250000Y-54500000D01*
X107250000Y-44000000D02*
X107250000Y-54500000D01*
X94250000Y-44000000D02*
X94250000Y-54500000D01*
X81250000Y-44000000D02*
X81250000Y-54500000D01*
X68250000Y-44000000D02*
X68250000Y-54500000D01*
X55250000Y-44000000D02*
X55250000Y-54500000D01*
X133250000Y-33500000D02*
X133250000Y-44000000D01*
X120250000Y-33500000D02*
X120250000Y-44000000D01*
X107250000Y-33500000D02*
X107250000Y-44000000D01*
X94250000Y-33500000D02*
X94250000Y-44000000D01*
X81250000Y-33500000D02*
X81250000Y-44000000D01*
X68250000Y-33500000D02*
X68250000Y-44000000D01*
X133250000Y-128000000D02*
X120250000Y-128000000D01*
X120250000Y-128000000D02*
X107250000Y-128000000D01*
X107250000Y-128000000D02*
X94250000Y-128000000D01*
X94250000Y-128000000D02*
X81250000Y-128000000D01*
X81250000Y-128000000D02*
X68250000Y-128000000D01*
X68250000Y-128000000D02*
X55250000Y-128000000D01*
X55250000Y-128000000D02*
X39250000Y-128000000D01*
X136250000Y-117500000D02*
X120250000Y-117500000D01*
X120250000Y-117500000D02*
X107250000Y-117500000D01*
X107250000Y-117500000D02*
X94250000Y-117500000D01*
X94250000Y-117500000D02*
X81250000Y-117500000D01*
X81250000Y-117500000D02*
X68250000Y-117500000D01*
X68250000Y-117500000D02*
X55250000Y-117500000D01*
X55250000Y-117500000D02*
X39250000Y-117500000D01*
X136250000Y-107000000D02*
X120250000Y-107000000D01*
X120250000Y-107000000D02*
X107250000Y-107000000D01*
X107250000Y-107000000D02*
X94250000Y-107000000D01*
X94250000Y-107000000D02*
X81250000Y-107000000D01*
X81250000Y-107000000D02*
X68250000Y-107000000D01*
X68250000Y-107000000D02*
X55250000Y-107000000D01*
X55250000Y-107000000D02*
X39250000Y-107000000D01*
X136250000Y-96500000D02*
X120250000Y-96500000D01*
X120250000Y-96500000D02*
X107250000Y-96500000D01*
X107250000Y-96500000D02*
X94250000Y-96500000D01*
X94250000Y-96500000D02*
X81250000Y-96500000D01*
X81250000Y-96500000D02*
X68250000Y-96500000D01*
X68250000Y-96500000D02*
X55250000Y-96500000D01*
X55250000Y-96500000D02*
X39250000Y-96500000D01*
X136250000Y-86000000D02*
X120250000Y-86000000D01*
X120250000Y-86000000D02*
X107250000Y-86000000D01*
X107250000Y-86000000D02*
X94250000Y-86000000D01*
X94250000Y-86000000D02*
X81250000Y-86000000D01*
X81250000Y-86000000D02*
X68250000Y-86000000D01*
X68250000Y-86000000D02*
X55250000Y-86000000D01*
X55250000Y-86000000D02*
X39250000Y-86000000D01*
X136250000Y-75500000D02*
X120250000Y-75500000D01*
X120250000Y-75500000D02*
X107250000Y-75500000D01*
X107250000Y-75500000D02*
X94250000Y-75500000D01*
X94250000Y-75500000D02*
X81250000Y-75500000D01*
X81250000Y-75500000D02*
X68250000Y-75500000D01*
X68250000Y-75500000D02*
X55250000Y-75500000D01*
X55250000Y-75500000D02*
X39250000Y-75500000D01*
X136250000Y-65000000D02*
X120250000Y-65000000D01*
X120250000Y-65000000D02*
X107250000Y-65000000D01*
X107250000Y-65000000D02*
X94250000Y-65000000D01*
X94250000Y-65000000D02*
X81250000Y-65000000D01*
X81250000Y-65000000D02*
X68250000Y-65000000D01*
X68250000Y-65000000D02*
X55250000Y-65000000D01*
X55250000Y-65000000D02*
X39250000Y-65000000D01*
X136250000Y-54500000D02*
X120250000Y-54500000D01*
X120250000Y-54500000D02*
X107250000Y-54500000D01*
X107250000Y-54500000D02*
X94250000Y-54500000D01*
X94250000Y-54500000D02*
X81250000Y-54500000D01*
X81250000Y-54500000D02*
X68250000Y-54500000D01*
X68250000Y-54500000D02*
X55250000Y-54500000D01*
X55250000Y-54500000D02*
X39250000Y-54500000D01*
X136250000Y-44000000D02*
X120250000Y-44000000D01*
X120250000Y-44000000D02*
X107250000Y-44000000D01*
X107250000Y-44000000D02*
X94250000Y-44000000D01*
X94250000Y-44000000D02*
X81250000Y-44000000D01*
X81250000Y-44000000D02*
X68250000Y-44000000D01*
X68250000Y-44000000D02*
X55250000Y-44000000D01*
X120250000Y-117500000D02*
X133250000Y-117500000D01*
X107250000Y-117500000D02*
X120250000Y-117500000D01*
X94250000Y-117500000D02*
X107250000Y-117500000D01*
X81250000Y-117500000D02*
X94250000Y-117500000D01*
X68250000Y-117500000D02*
X81250000Y-117500000D01*
X55250000Y-117500000D02*
X68250000Y-117500000D01*
X42250000Y-117500000D02*
X55250000Y-117500000D01*
X120250000Y-107000000D02*
X133250000Y-107000000D01*
X107250000Y-107000000D02*
X120250000Y-107000000D01*
X94250000Y-107000000D02*
X107250000Y-107000000D01*
X81250000Y-107000000D02*
X94250000Y-107000000D01*
X68250000Y-107000000D02*
X81250000Y-107000000D01*
X55250000Y-107000000D02*
X68250000Y-107000000D01*
X42250000Y-107000000D02*
X55250000Y-107000000D01*
X120250000Y-96500000D02*
X133250000Y-96500000D01*
X107250000Y-96500000D02*
X120250000Y-96500000D01*
X94250000Y-96500000D02*
X107250000Y-96500000D01*
X81250000Y-96500000D02*
X94250000Y-96500000D01*
X68250000Y-96500000D02*
X81250000Y-96500000D01*
X55250000Y-96500000D02*
X68250000Y-96500000D01*
X42250000Y-96500000D02*
X55250000Y-96500000D01*
X120250000Y-86000000D02*
X133250000Y-86000000D01*
X107250000Y-86000000D02*
X120250000Y-86000000D01*
X94250000Y-86000000D02*
X107250000Y-86000000D01*
X81250000Y-86000000D02*
X94250000Y-86000000D01*
X68250000Y-86000000D02*
X81250000Y-86000000D01*
X55250000Y-86000000D02*
X68250000Y-86000000D01*
X42250000Y-86000000D02*
X55250000Y-86000000D01*
X120250000Y-75500000D02*
X133250000Y-75500000D01*
X107250000Y-75500000D02*
X120250000Y-75500000D01*
X94250000Y-75500000D02*
X107250000Y-75500000D01*
X81250000Y-75500000D02*
X94250000Y-75500000D01*
X68250000Y-75500000D02*
X81250000Y-75500000D01*
X55250000Y-75500000D02*
X68250000Y-75500000D01*
X42250000Y-75500000D02*
X55250000Y-75500000D01*
X120250000Y-65000000D02*
X133250000Y-65000000D01*
X107250000Y-65000000D02*
X120250000Y-65000000D01*
X94250000Y-65000000D02*
X107250000Y-65000000D01*
X81250000Y-65000000D02*
X94250000Y-65000000D01*
X68250000Y-65000000D02*
X81250000Y-65000000D01*
X55250000Y-65000000D02*
X68250000Y-65000000D01*
X42250000Y-65000000D02*
X55250000Y-65000000D01*
X120250000Y-54500000D02*
X133250000Y-54500000D01*
X107250000Y-54500000D02*
X120250000Y-54500000D01*
X94250000Y-54500000D02*
X107250000Y-54500000D01*
X81250000Y-54500000D02*
X94250000Y-54500000D01*
X68250000Y-54500000D02*
X81250000Y-54500000D01*
X55250000Y-54500000D02*
X68250000Y-54500000D01*
X42250000Y-54500000D02*
X55250000Y-54500000D01*
X120250000Y-44000000D02*
X133250000Y-44000000D01*
X107250000Y-44000000D02*
X120250000Y-44000000D01*
X94250000Y-44000000D02*
X107250000Y-44000000D01*
X81250000Y-44000000D02*
X94250000Y-44000000D01*
X68250000Y-44000000D02*
X81250000Y-44000000D01*
X55250000Y-44000000D02*
X68250000Y-44000000D01*
X39250000Y-44000000D02*
X55250000Y-44000000D01*
X120250000Y-33500000D02*
X133250000Y-33500000D01*
X107250000Y-33500000D02*
X120250000Y-33500000D01*
X94250000Y-33500000D02*
X107250000Y-33500000D01*
X81250000Y-33500000D02*
X94250000Y-33500000D01*
X68250000Y-33500000D02*
X81250000Y-33500000D01*
X55250000Y-33500000D02*
X68250000Y-33500000D01*
X120250000Y-128000000D02*
X120250000Y-117500000D01*
X107250000Y-128000000D02*
X107250000Y-117500000D01*
X94250000Y-128000000D02*
X94250000Y-117500000D01*
X81250000Y-128000000D02*
X81250000Y-117500000D01*
X68250000Y-128000000D02*
X68250000Y-117500000D01*
X55250000Y-128000000D02*
X55250000Y-117500000D01*
X42250000Y-128000000D02*
X42250000Y-117500000D01*
X120250000Y-117500000D02*
X120250000Y-107000000D01*
X107250000Y-117500000D02*
X107250000Y-107000000D01*
X94250000Y-117500000D02*
X94250000Y-107000000D01*
X81250000Y-117500000D02*
X81250000Y-107000000D01*
X68250000Y-117500000D02*
X68250000Y-107000000D01*
X55250000Y-117500000D02*
X55250000Y-107000000D01*
X42250000Y-117500000D02*
X42250000Y-107000000D01*
X120250000Y-107000000D02*
X120250000Y-96500000D01*
X107250000Y-107000000D02*
X107250000Y-96500000D01*
X94250000Y-107000000D02*
X94250000Y-96500000D01*
X81250000Y-107000000D02*
X81250000Y-96500000D01*
X68250000Y-107000000D02*
X68250000Y-96500000D01*
X55250000Y-107000000D02*
X55250000Y-96500000D01*
X42250000Y-107000000D02*
X42250000Y-96500000D01*
X120250000Y-96500000D02*
X120250000Y-86000000D01*
X107250000Y-96500000D02*
X107250000Y-86000000D01*
X94250000Y-96500000D02*
X94250000Y-86000000D01*
X81250000Y-96500000D02*
X81250000Y-86000000D01*
X68250000Y-96500000D02*
X68250000Y-86000000D01*
X55250000Y-96500000D02*
X55250000Y-86000000D01*
X42250000Y-96500000D02*
X42250000Y-86000000D01*
X120250000Y-86000000D02*
X120250000Y-75500000D01*
X107250000Y-86000000D02*
X107250000Y-75500000D01*
X94250000Y-86000000D02*
X94250000Y-75500000D01*
X81250000Y-86000000D02*
X81250000Y-75500000D01*
X68250000Y-86000000D02*
X68250000Y-75500000D01*
X55250000Y-86000000D02*
X55250000Y-75500000D01*
X42250000Y-86000000D02*
X42250000Y-75500000D01*
X120250000Y-75500000D02*
X120250000Y-65000000D01*
X107250000Y-75500000D02*
X107250000Y-65000000D01*
X94250000Y-75500000D02*
X94250000Y-65000000D01*
X81250000Y-75500000D02*
X81250000Y-65000000D01*
X68250000Y-75500000D02*
X68250000Y-65000000D01*
X55250000Y-75500000D02*
X55250000Y-65000000D01*
X42250000Y-75500000D02*
X42250000Y-65000000D01*
X120250000Y-65000000D02*
X120250000Y-54500000D01*
X107250000Y-65000000D02*
X107250000Y-54500000D01*
X94250000Y-65000000D02*
X94250000Y-54500000D01*
X81250000Y-65000000D02*
X81250000Y-54500000D01*
X68250000Y-65000000D02*
X68250000Y-54500000D01*
X55250000Y-65000000D02*
X55250000Y-54500000D01*
X42250000Y-65000000D02*
X42250000Y-54500000D01*
X120250000Y-54500000D02*
X120250000Y-44000000D01*
X107250000Y-54500000D02*
X107250000Y-44000000D01*
X94250000Y-54500000D02*
X94250000Y-44000000D01*
X81250000Y-54500000D02*
X81250000Y-44000000D01*
X68250000Y-54500000D02*
X68250000Y-44000000D01*
X55250000Y-54500000D02*
X55250000Y-44000000D01*
X42250000Y-54500000D02*
X42250000Y-44000000D01*
X120250000Y-44000000D02*
X120250000Y-33500000D01*
X107250000Y-44000000D02*
X107250000Y-33500000D01*
X94250000Y-44000000D02*
X94250000Y-33500000D01*
X81250000Y-44000000D02*
X81250000Y-33500000D01*
X68250000Y-44000000D02*
X68250000Y-33500000D01*
X55250000Y-44000000D02*
X55250000Y-33500000D01*
X42250000Y-33500000D02*
X55250000Y-33500000D01*
X42250000Y-44000000D02*
X42250000Y-33500000D01*
X55250000Y-44000000D02*
X42250000Y-44000000D01*
X55250000Y-33500000D02*
X55250000Y-44000000D01*
M02*
