M48
; DRILL file {KiCad (5.1.4)-1} date 23/04/2020 21:15:48
; FORMAT={-:-/ absolute / metric / decimal}
; #@! TF.CreationDate,2020-04-23T21:15:48+02:00
; #@! TF.GenerationSoftware,Kicad,Pcbnew,(5.1.4)-1
; #@! TF.FileFunction,Plated,1,2,PTH
FMAT,2
METRIC
T1C0.300
T2C0.400
T3C0.800
%
G90
G05
T1
X48.6Y-36.7
X48.6Y-47.2
X48.6Y-57.7
X48.6Y-68.2
X48.6Y-78.7
X48.6Y-89.2
X48.6Y-99.7
X48.6Y-110.2
X48.6Y-120.7
X49.8Y-38.0
X49.8Y-48.5
X49.8Y-59.0
X49.8Y-69.5
X49.8Y-80.0
X49.8Y-90.5
X49.8Y-101.0
X49.8Y-111.5
X49.8Y-122.0
X61.6Y-36.7
X61.6Y-47.2
X61.6Y-57.7
X61.6Y-68.2
X61.6Y-78.7
X61.6Y-89.2
X61.6Y-99.7
X61.6Y-110.2
X61.6Y-120.7
X62.8Y-38.0
X62.8Y-48.5
X62.8Y-59.0
X62.8Y-69.5
X62.8Y-80.0
X62.8Y-90.5
X62.8Y-101.0
X62.8Y-111.5
X62.8Y-122.0
X74.6Y-36.7
X74.6Y-47.2
X74.6Y-57.7
X74.6Y-68.2
X74.6Y-78.7
X74.6Y-89.2
X74.6Y-99.7
X74.6Y-110.2
X74.6Y-120.7
X75.8Y-38.0
X75.8Y-48.5
X75.8Y-59.0
X75.8Y-69.5
X75.8Y-80.0
X75.8Y-90.5
X75.8Y-101.0
X75.8Y-111.5
X75.8Y-122.0
X87.6Y-36.7
X87.6Y-47.2
X87.6Y-57.7
X87.6Y-68.2
X87.6Y-78.7
X87.6Y-89.2
X87.6Y-99.7
X87.6Y-110.2
X87.6Y-120.7
X88.8Y-38.0
X88.8Y-48.5
X88.8Y-59.0
X88.8Y-69.5
X88.8Y-80.0
X88.8Y-90.5
X88.8Y-101.0
X88.8Y-111.5
X88.8Y-122.0
X100.6Y-36.7
X100.6Y-47.2
X100.6Y-57.7
X100.6Y-68.2
X100.6Y-78.7
X100.6Y-89.2
X100.6Y-99.7
X100.6Y-110.2
X100.6Y-120.7
X101.8Y-38.0
X101.8Y-48.5
X101.8Y-59.0
X101.8Y-69.5
X101.8Y-80.0
X101.8Y-90.5
X101.8Y-101.0
X101.8Y-111.5
X101.8Y-122.0
X113.6Y-36.7
X113.6Y-47.2
X113.6Y-57.7
X113.6Y-68.2
X113.6Y-78.7
X113.6Y-89.2
X113.6Y-99.7
X113.6Y-110.2
X113.6Y-120.7
X114.8Y-38.0
X114.8Y-48.5
X114.8Y-59.0
X114.8Y-69.5
X114.8Y-80.0
X114.8Y-90.5
X114.8Y-101.0
X114.8Y-111.5
X114.8Y-122.0
X126.6Y-36.7
X126.6Y-47.2
X126.6Y-57.7
X126.6Y-68.2
X126.6Y-78.7
X126.6Y-89.2
X126.6Y-99.7
X126.6Y-110.2
X126.6Y-120.7
X127.8Y-38.0
X127.8Y-48.5
X127.8Y-59.0
X127.8Y-69.5
X127.8Y-80.0
X127.8Y-90.5
X127.8Y-101.0
X127.8Y-111.5
X127.8Y-122.0
T2
X46.0Y-36.1
X46.0Y-38.0
X46.0Y-46.6
X46.0Y-48.5
X46.0Y-57.1
X46.0Y-59.0
X46.0Y-67.6
X46.0Y-69.5
X46.0Y-78.1
X46.0Y-80.0
X46.0Y-88.6
X46.0Y-90.5
X46.0Y-99.1
X46.0Y-101.0
X46.0Y-109.6
X46.0Y-111.5
X46.0Y-120.1
X46.0Y-122.0
X51.4Y-36.2
X51.4Y-46.7
X51.4Y-57.2
X51.4Y-67.7
X51.4Y-78.2
X51.4Y-88.7
X51.4Y-99.2
X51.4Y-109.7
X51.4Y-120.2
X59.0Y-36.1
X59.0Y-38.0
X59.0Y-46.6
X59.0Y-48.5
X59.0Y-57.1
X59.0Y-59.0
X59.0Y-67.6
X59.0Y-69.5
X59.0Y-78.1
X59.0Y-80.0
X59.0Y-88.6
X59.0Y-90.5
X59.0Y-99.1
X59.0Y-101.0
X59.0Y-109.6
X59.0Y-111.5
X59.0Y-120.1
X59.0Y-122.0
X64.4Y-36.2
X64.4Y-46.7
X64.4Y-57.2
X64.4Y-67.7
X64.4Y-78.2
X64.4Y-88.7
X64.4Y-99.2
X64.4Y-109.7
X64.4Y-120.2
X72.0Y-36.1
X72.0Y-38.0
X72.0Y-46.6
X72.0Y-48.5
X72.0Y-57.1
X72.0Y-59.0
X72.0Y-67.6
X72.0Y-69.5
X72.0Y-78.1
X72.0Y-80.0
X72.0Y-88.6
X72.0Y-90.5
X72.0Y-99.1
X72.0Y-101.0
X72.0Y-109.6
X72.0Y-111.5
X72.0Y-120.1
X72.0Y-122.0
X77.4Y-36.2
X77.4Y-46.7
X77.4Y-57.2
X77.4Y-67.7
X77.4Y-78.2
X77.4Y-88.7
X77.4Y-99.2
X77.4Y-109.7
X77.4Y-120.2
X85.0Y-36.1
X85.0Y-38.0
X85.0Y-46.6
X85.0Y-48.5
X85.0Y-57.1
X85.0Y-59.0
X85.0Y-67.6
X85.0Y-69.5
X85.0Y-78.1
X85.0Y-80.0
X85.0Y-88.6
X85.0Y-90.5
X85.0Y-99.1
X85.0Y-101.0
X85.0Y-109.6
X85.0Y-111.5
X85.0Y-120.1
X85.0Y-122.0
X90.4Y-36.2
X90.4Y-46.7
X90.4Y-57.2
X90.4Y-67.7
X90.4Y-78.2
X90.4Y-88.7
X90.4Y-99.2
X90.4Y-109.7
X90.4Y-120.2
X98.0Y-36.1
X98.0Y-38.0
X98.0Y-46.6
X98.0Y-48.5
X98.0Y-57.1
X98.0Y-59.0
X98.0Y-67.6
X98.0Y-69.5
X98.0Y-78.1
X98.0Y-80.0
X98.0Y-88.6
X98.0Y-90.5
X98.0Y-99.1
X98.0Y-101.0
X98.0Y-109.6
X98.0Y-111.5
X98.0Y-120.1
X98.0Y-122.0
X103.4Y-36.2
X103.4Y-46.7
X103.4Y-57.2
X103.4Y-67.7
X103.4Y-78.2
X103.4Y-88.7
X103.4Y-99.2
X103.4Y-109.7
X103.4Y-120.2
X111.0Y-36.1
X111.0Y-38.0
X111.0Y-46.6
X111.0Y-48.5
X111.0Y-57.1
X111.0Y-59.0
X111.0Y-67.6
X111.0Y-69.5
X111.0Y-78.1
X111.0Y-80.0
X111.0Y-88.6
X111.0Y-90.5
X111.0Y-99.1
X111.0Y-101.0
X111.0Y-109.6
X111.0Y-111.5
X111.0Y-120.1
X111.0Y-122.0
X116.4Y-36.2
X116.4Y-46.7
X116.4Y-57.2
X116.4Y-67.7
X116.4Y-78.2
X116.4Y-88.7
X116.4Y-99.2
X116.4Y-109.7
X116.4Y-120.2
X124.0Y-36.1
X124.0Y-38.0
X124.0Y-46.6
X124.0Y-48.5
X124.0Y-57.1
X124.0Y-59.0
X124.0Y-67.6
X124.0Y-69.5
X124.0Y-78.1
X124.0Y-80.0
X124.0Y-88.6
X124.0Y-90.5
X124.0Y-99.1
X124.0Y-101.0
X124.0Y-109.6
X124.0Y-111.5
X124.0Y-120.1
X124.0Y-122.0
X129.4Y-36.2
X129.4Y-46.7
X129.4Y-57.2
X129.4Y-67.7
X129.4Y-78.2
X129.4Y-88.7
X129.4Y-99.2
X129.4Y-109.7
X129.4Y-120.2
T3
X121.625Y-56.05
X121.625Y-58.59
X121.625Y-61.13
X121.625Y-63.67
X131.785Y-56.05
X131.785Y-58.59
X131.785Y-61.13
X131.785Y-63.67
X56.625Y-87.55
X56.625Y-90.09
X56.625Y-92.63
X56.625Y-95.17
X66.785Y-87.55
X66.785Y-90.09
X66.785Y-92.63
X66.785Y-95.17
X108.625Y-56.05
X108.625Y-58.59
X108.625Y-61.13
X108.625Y-63.67
X118.785Y-56.05
X118.785Y-58.59
X118.785Y-61.13
X118.785Y-63.67
X108.625Y-45.55
X108.625Y-48.09
X108.625Y-50.63
X108.625Y-53.17
X118.785Y-45.55
X118.785Y-48.09
X118.785Y-50.63
X118.785Y-53.17
X95.625Y-66.55
X95.625Y-69.09
X95.625Y-71.63
X95.625Y-74.17
X105.785Y-66.55
X105.785Y-69.09
X105.785Y-71.63
X105.785Y-74.17
X108.625Y-98.05
X108.625Y-100.59
X108.625Y-103.13
X108.625Y-105.67
X118.785Y-98.05
X118.785Y-100.59
X118.785Y-103.13
X118.785Y-105.67
X108.625Y-77.05
X108.625Y-79.59
X108.625Y-82.13
X108.625Y-84.67
X118.785Y-77.05
X118.785Y-79.59
X118.785Y-82.13
X118.785Y-84.67
X69.625Y-98.05
X69.625Y-100.59
X69.625Y-103.13
X69.625Y-105.67
X79.785Y-98.05
X79.785Y-100.59
X79.785Y-103.13
X79.785Y-105.67
X82.625Y-35.05
X82.625Y-37.59
X82.625Y-40.13
X82.625Y-42.67
X92.785Y-35.05
X92.785Y-37.59
X92.785Y-40.13
X92.785Y-42.67
X121.625Y-66.55
X121.625Y-69.09
X121.625Y-71.63
X121.625Y-74.17
X131.785Y-66.55
X131.785Y-69.09
X131.785Y-71.63
X131.785Y-74.17
X108.625Y-119.05
X108.625Y-121.59
X108.625Y-124.13
X108.625Y-126.67
X118.785Y-119.05
X118.785Y-121.59
X118.785Y-124.13
X118.785Y-126.67
X121.625Y-87.55
X121.625Y-90.09
X121.625Y-92.63
X121.625Y-95.17
X131.785Y-87.55
X131.785Y-90.09
X131.785Y-92.63
X131.785Y-95.17
X82.625Y-98.05
X82.625Y-100.59
X82.625Y-103.13
X82.625Y-105.67
X92.785Y-98.05
X92.785Y-100.59
X92.785Y-103.13
X92.785Y-105.67
X43.625Y-56.05
X43.625Y-58.59
X43.625Y-61.13
X43.625Y-63.67
X53.785Y-56.05
X53.785Y-58.59
X53.785Y-61.13
X53.785Y-63.67
X121.625Y-108.55
X121.625Y-111.09
X121.625Y-113.63
X121.625Y-116.17
X131.785Y-108.55
X131.785Y-111.09
X131.785Y-113.63
X131.785Y-116.17
X69.625Y-35.05
X69.625Y-37.59
X69.625Y-40.13
X69.625Y-42.67
X79.785Y-35.05
X79.785Y-37.59
X79.785Y-40.13
X79.785Y-42.67
X56.625Y-77.05
X56.625Y-79.59
X56.625Y-82.13
X56.625Y-84.67
X66.785Y-77.05
X66.785Y-79.59
X66.785Y-82.13
X66.785Y-84.67
X43.625Y-87.55
X43.625Y-90.09
X43.625Y-92.63
X43.625Y-95.17
X53.785Y-87.55
X53.785Y-90.09
X53.785Y-92.63
X53.785Y-95.17
X95.625Y-56.05
X95.625Y-58.59
X95.625Y-61.13
X95.625Y-63.67
X105.785Y-56.05
X105.785Y-58.59
X105.785Y-61.13
X105.785Y-63.67
X43.625Y-108.55
X43.625Y-111.09
X43.625Y-113.63
X43.625Y-116.17
X53.785Y-108.55
X53.785Y-111.09
X53.785Y-113.63
X53.785Y-116.17
X121.625Y-35.05
X121.625Y-37.59
X121.625Y-40.13
X121.625Y-42.67
X131.785Y-35.05
X131.785Y-37.59
X131.785Y-40.13
X131.785Y-42.67
X43.625Y-77.05
X43.625Y-79.59
X43.625Y-82.13
X43.625Y-84.67
X53.785Y-77.05
X53.785Y-79.59
X53.785Y-82.13
X53.785Y-84.67
X82.625Y-56.05
X82.625Y-58.59
X82.625Y-61.13
X82.625Y-63.67
X92.785Y-56.05
X92.785Y-58.59
X92.785Y-61.13
X92.785Y-63.67
X69.625Y-119.05
X69.625Y-121.59
X69.625Y-124.13
X69.625Y-126.67
X79.785Y-119.05
X79.785Y-121.59
X79.785Y-124.13
X79.785Y-126.67
X69.625Y-56.05
X69.625Y-58.59
X69.625Y-61.13
X69.625Y-63.67
X79.785Y-56.05
X79.785Y-58.59
X79.785Y-61.13
X79.785Y-63.67
X69.625Y-77.05
X69.625Y-79.59
X69.625Y-82.13
X69.625Y-84.67
X79.785Y-77.05
X79.785Y-79.59
X79.785Y-82.13
X79.785Y-84.67
X43.625Y-119.05
X43.625Y-121.59
X43.625Y-124.13
X43.625Y-126.67
X53.785Y-119.05
X53.785Y-121.59
X53.785Y-124.13
X53.785Y-126.67
X108.625Y-108.55
X108.625Y-111.09
X108.625Y-113.63
X108.625Y-116.17
X118.785Y-108.55
X118.785Y-111.09
X118.785Y-113.63
X118.785Y-116.17
X43.625Y-35.05
X43.625Y-37.59
X43.625Y-40.13
X43.625Y-42.67
X53.785Y-35.05
X53.785Y-37.59
X53.785Y-40.13
X53.785Y-42.67
X56.625Y-35.05
X56.625Y-37.59
X56.625Y-40.13
X56.625Y-42.67
X66.785Y-35.05
X66.785Y-37.59
X66.785Y-40.13
X66.785Y-42.67
X82.625Y-87.55
X82.625Y-90.09
X82.625Y-92.63
X82.625Y-95.17
X92.785Y-87.55
X92.785Y-90.09
X92.785Y-92.63
X92.785Y-95.17
X121.625Y-98.05
X121.625Y-100.59
X121.625Y-103.13
X121.625Y-105.67
X131.785Y-98.05
X131.785Y-100.59
X131.785Y-103.13
X131.785Y-105.67
X95.625Y-119.05
X95.625Y-121.59
X95.625Y-124.13
X95.625Y-126.67
X105.785Y-119.05
X105.785Y-121.59
X105.785Y-124.13
X105.785Y-126.67
X43.625Y-66.55
X43.625Y-69.09
X43.625Y-71.63
X43.625Y-74.17
X53.785Y-66.55
X53.785Y-69.09
X53.785Y-71.63
X53.785Y-74.17
X56.625Y-56.05
X56.625Y-58.59
X56.625Y-61.13
X56.625Y-63.67
X66.785Y-56.05
X66.785Y-58.59
X66.785Y-61.13
X66.785Y-63.67
X43.625Y-98.05
X43.625Y-100.59
X43.625Y-103.13
X43.625Y-105.67
X53.785Y-98.05
X53.785Y-100.59
X53.785Y-103.13
X53.785Y-105.67
X56.625Y-66.55
X56.625Y-69.09
X56.625Y-71.63
X56.625Y-74.17
X66.785Y-66.55
X66.785Y-69.09
X66.785Y-71.63
X66.785Y-74.17
X82.625Y-66.55
X82.625Y-69.09
X82.625Y-71.63
X82.625Y-74.17
X92.785Y-66.55
X92.785Y-69.09
X92.785Y-71.63
X92.785Y-74.17
X108.625Y-35.05
X108.625Y-37.59
X108.625Y-40.13
X108.625Y-42.67
X118.785Y-35.05
X118.785Y-37.59
X118.785Y-40.13
X118.785Y-42.67
X43.625Y-45.55
X43.625Y-48.09
X43.625Y-50.63
X43.625Y-53.17
X53.785Y-45.55
X53.785Y-48.09
X53.785Y-50.63
X53.785Y-53.17
X69.625Y-45.55
X69.625Y-48.09
X69.625Y-50.63
X69.625Y-53.17
X79.785Y-45.55
X79.785Y-48.09
X79.785Y-50.63
X79.785Y-53.17
X121.625Y-45.55
X121.625Y-48.09
X121.625Y-50.63
X121.625Y-53.17
X131.785Y-45.55
X131.785Y-48.09
X131.785Y-50.63
X131.785Y-53.17
X82.625Y-108.55
X82.625Y-111.09
X82.625Y-113.63
X82.625Y-116.17
X92.785Y-108.55
X92.785Y-111.09
X92.785Y-113.63
X92.785Y-116.17
X82.625Y-77.05
X82.625Y-79.59
X82.625Y-82.13
X82.625Y-84.67
X92.785Y-77.05
X92.785Y-79.59
X92.785Y-82.13
X92.785Y-84.67
X95.625Y-45.55
X95.625Y-48.09
X95.625Y-50.63
X95.625Y-53.17
X105.785Y-45.55
X105.785Y-48.09
X105.785Y-50.63
X105.785Y-53.17
X56.625Y-45.55
X56.625Y-48.09
X56.625Y-50.63
X56.625Y-53.17
X66.785Y-45.55
X66.785Y-48.09
X66.785Y-50.63
X66.785Y-53.17
X56.625Y-108.55
X56.625Y-111.09
X56.625Y-113.63
X56.625Y-116.17
X66.785Y-108.55
X66.785Y-111.09
X66.785Y-113.63
X66.785Y-116.17
X69.625Y-66.55
X69.625Y-69.09
X69.625Y-71.63
X69.625Y-74.17
X79.785Y-66.55
X79.785Y-69.09
X79.785Y-71.63
X79.785Y-74.17
X82.625Y-119.05
X82.625Y-121.59
X82.625Y-124.13
X82.625Y-126.67
X92.785Y-119.05
X92.785Y-121.59
X92.785Y-124.13
X92.785Y-126.67
X95.625Y-77.05
X95.625Y-79.59
X95.625Y-82.13
X95.625Y-84.67
X105.785Y-77.05
X105.785Y-79.59
X105.785Y-82.13
X105.785Y-84.67
X95.625Y-98.05
X95.625Y-100.59
X95.625Y-103.13
X95.625Y-105.67
X105.785Y-98.05
X105.785Y-100.59
X105.785Y-103.13
X105.785Y-105.67
X56.625Y-119.05
X56.625Y-121.59
X56.625Y-124.13
X56.625Y-126.67
X66.785Y-119.05
X66.785Y-121.59
X66.785Y-124.13
X66.785Y-126.67
X95.625Y-87.55
X95.625Y-90.09
X95.625Y-92.63
X95.625Y-95.17
X105.785Y-87.55
X105.785Y-90.09
X105.785Y-92.63
X105.785Y-95.17
X69.625Y-108.55
X69.625Y-111.09
X69.625Y-113.63
X69.625Y-116.17
X79.785Y-108.55
X79.785Y-111.09
X79.785Y-113.63
X79.785Y-116.17
X108.625Y-87.55
X108.625Y-90.09
X108.625Y-92.63
X108.625Y-95.17
X118.785Y-87.55
X118.785Y-90.09
X118.785Y-92.63
X118.785Y-95.17
X56.625Y-98.05
X56.625Y-100.59
X56.625Y-103.13
X56.625Y-105.67
X66.785Y-98.05
X66.785Y-100.59
X66.785Y-103.13
X66.785Y-105.67
X95.625Y-35.05
X95.625Y-37.59
X95.625Y-40.13
X95.625Y-42.67
X105.785Y-35.05
X105.785Y-37.59
X105.785Y-40.13
X105.785Y-42.67
X82.625Y-45.55
X82.625Y-48.09
X82.625Y-50.63
X82.625Y-53.17
X92.785Y-45.55
X92.785Y-48.09
X92.785Y-50.63
X92.785Y-53.17
X121.625Y-119.05
X121.625Y-121.59
X121.625Y-124.13
X121.625Y-126.67
X131.785Y-119.05
X131.785Y-121.59
X131.785Y-124.13
X131.785Y-126.67
X108.625Y-66.55
X108.625Y-69.09
X108.625Y-71.63
X108.625Y-74.17
X118.785Y-66.55
X118.785Y-69.09
X118.785Y-71.63
X118.785Y-74.17
X69.625Y-87.55
X69.625Y-90.09
X69.625Y-92.63
X69.625Y-95.17
X79.785Y-87.55
X79.785Y-90.09
X79.785Y-92.63
X79.785Y-95.17
X121.625Y-77.05
X121.625Y-79.59
X121.625Y-82.13
X121.625Y-84.67
X131.785Y-77.05
X131.785Y-79.59
X131.785Y-82.13
X131.785Y-84.67
X95.625Y-108.55
X95.625Y-111.09
X95.625Y-113.63
X95.625Y-116.17
X105.785Y-108.55
X105.785Y-111.09
X105.785Y-113.63
X105.785Y-116.17
T0
M30
