EESchema Schematic File Version 4
EELAYER 30 0
EELAYER END
$Descr A4 11693 8268
encoding utf-8
Sheet 1 1
Title ""
Date ""
Rev ""
Comp ""
Comment1 ""
Comment2 ""
Comment3 ""
Comment4 ""
$EndDescr
$Comp
L mod:TLV74233PDQNR U1
U 1 1 5EA1E05D
P 4675 2725
F 0 "U1" H 4675 3050 50  0000 C CNN
F 1 "TLV74233PDQNR" H 4675 2959 50  0000 C CNN
F 2 "footprint:Texas_X2SON-4_1x1mm_P0.65mm" H 4675 2725 50  0001 C CNN
F 3 "" H 4675 2725 50  0001 C CNN
	1    4675 2725
	1    0    0    -1  
$EndComp
Text GLabel 3300 2625 0    50   Input ~ 0
Vin
Text GLabel 3275 2825 0    50   Input ~ 0
EN
$Comp
L Device:R_Small R1
U 1 1 5EA1EBD6
P 3525 2725
F 0 "R1" H 3584 2771 50  0000 L CNN
F 1 "10k" H 3584 2680 50  0000 L CNN
F 2 "Resistor_SMD:R_0402_1005Metric" H 3525 2725 50  0001 C CNN
F 3 "~" H 3525 2725 50  0001 C CNN
	1    3525 2725
	1    0    0    -1  
$EndComp
$Comp
L Device:C C2
U 1 1 5EA1F6F5
P 4025 3175
F 0 "C2" H 4140 3221 50  0000 L CNN
F 1 "1u" H 4140 3130 50  0000 L CNN
F 2 "Capacitor_SMD:C_0402_1005Metric" H 4063 3025 50  0001 C CNN
F 3 "~" H 4025 3175 50  0001 C CNN
	1    4025 3175
	1    0    0    -1  
$EndComp
$Comp
L Device:C C1
U 1 1 5EA1FFFD
P 5100 3150
F 0 "C1" H 5215 3196 50  0000 L CNN
F 1 "1u" H 5215 3105 50  0000 L CNN
F 2 "Capacitor_SMD:C_0402_1005Metric" H 5138 3000 50  0001 C CNN
F 3 "~" H 5100 3150 50  0001 C CNN
	1    5100 3150
	1    0    0    -1  
$EndComp
$Comp
L SRC_KIT:GND1 #PWR01
U 1 1 5EA205BF
P 4025 3500
F 0 "#PWR01" H 4025 3250 50  0001 C CNN
F 1 "GND1" H 4030 3327 50  0000 C CNN
F 2 "" H 4025 3500 50  0001 C CNN
F 3 "" H 4025 3500 50  0001 C CNN
	1    4025 3500
	1    0    0    -1  
$EndComp
Wire Wire Line
	4025 3500 4025 3425
Wire Wire Line
	4025 3425 4650 3425
Wire Wire Line
	5100 3425 5100 3300
Connection ~ 4025 3425
Wire Wire Line
	4025 3425 4025 3325
Wire Wire Line
	4825 2975 4825 3425
Connection ~ 4825 3425
Wire Wire Line
	4825 3425 5100 3425
Wire Wire Line
	4675 2975 4650 2975
Wire Wire Line
	4650 2975 4650 3425
Connection ~ 4650 3425
Wire Wire Line
	4650 3425 4825 3425
Wire Wire Line
	5100 3000 5100 2625
Wire Wire Line
	5100 2625 4975 2625
Wire Wire Line
	4375 2825 3525 2825
Wire Wire Line
	4375 2625 4025 2625
Wire Wire Line
	3525 2625 3300 2625
Connection ~ 3525 2625
Wire Wire Line
	3275 2825 3525 2825
Connection ~ 3525 2825
Wire Wire Line
	4025 3025 4025 2625
Connection ~ 4025 2625
Wire Wire Line
	4025 2625 3525 2625
Text GLabel 5225 2625 2    50   Input ~ 0
Vout
Wire Wire Line
	5225 2625 5100 2625
Connection ~ 5100 2625
$Comp
L mod:SO8_ADAPTER U2
U 1 1 5EA220CC
P 4475 5200
F 0 "U2" H 4475 5625 50  0000 C CNN
F 1 "SO8_ADAPTER" H 4475 5534 50  0000 C CNN
F 2 "Package_DIP:DIP-8_W10.16mm_LongPads" H 4475 5250 50  0001 C CNN
F 3 "" H 4475 5250 50  0001 C CNN
	1    4475 5200
	1    0    0    -1  
$EndComp
Text GLabel 4050 5000 0    50   Input ~ 0
Vin
Text GLabel 4900 5000 2    50   Input ~ 0
Vout
Text GLabel 4050 5300 0    50   Input ~ 0
EN
$Comp
L SRC_KIT:GND1 #PWR02
U 1 1 5EA22AAE
P 4025 5550
F 0 "#PWR02" H 4025 5300 50  0001 C CNN
F 1 "GND1" H 4030 5377 50  0000 C CNN
F 2 "" H 4025 5550 50  0001 C CNN
F 3 "" H 4025 5550 50  0001 C CNN
	1    4025 5550
	1    0    0    -1  
$EndComp
$Comp
L SRC_KIT:GND1 #PWR03
U 1 1 5EA22F45
P 4925 5600
F 0 "#PWR03" H 4925 5350 50  0001 C CNN
F 1 "GND1" H 4930 5427 50  0000 C CNN
F 2 "" H 4925 5600 50  0001 C CNN
F 3 "" H 4925 5600 50  0001 C CNN
	1    4925 5600
	1    0    0    -1  
$EndComp
Wire Wire Line
	4025 5550 4025 5450
Wire Wire Line
	4025 5450 4175 5450
Wire Wire Line
	4050 5300 4175 5300
Wire Wire Line
	4050 5000 4175 5000
Wire Wire Line
	4775 5000 4900 5000
Wire Wire Line
	4775 5450 4925 5450
Wire Wire Line
	4925 5450 4925 5600
$Comp
L Device:R R2
U 1 1 5EA24644
P 5825 2825
F 0 "R2" H 5895 2871 50  0000 L CNN
F 1 "10k" H 5895 2780 50  0000 L CNN
F 2 "Resistor_SMD:R_0402_1005Metric" V 5755 2825 50  0001 C CNN
F 3 "~" H 5825 2825 50  0001 C CNN
	1    5825 2825
	1    0    0    -1  
$EndComp
Text GLabel 5825 2550 2    50   Input ~ 0
Vout
$Comp
L Device:LED D1
U 1 1 5EA24D26
P 5825 3200
F 0 "D1" V 5864 3082 50  0000 R CNN
F 1 "GREEN" V 5773 3082 50  0000 R CNN
F 2 "LED_SMD:LED_0603_1608Metric" H 5825 3200 50  0001 C CNN
F 3 "~" H 5825 3200 50  0001 C CNN
	1    5825 3200
	0    -1   -1   0   
$EndComp
Wire Wire Line
	5825 2550 5825 2675
Wire Wire Line
	5825 2975 5825 3050
Wire Wire Line
	5825 3350 5825 3425
Wire Wire Line
	5825 3425 5100 3425
Connection ~ 5100 3425
$EndSCHEMATC
